…
#### Basics of Tibbles

The underlying theory behind Tibble is inspired by SQL as well as Hadley's view of literate programing.
Guiding ideas include:

1. Function like `select()` to select columns rather than `df$col`


```
## # A tibble: 352 x 2
##    Fluor  Copies
##    <chr>   <dbl>
##  1 FAM   1336000
##  2 FAM   1099000
##  3 FAM   1229000
##  4 FAM   1827000
##  5 FAM   1758000
##  6 FAM   1543000
##  7 FAM        NA
##  8 FAM        NA
##  9 FAM        NA
## 10 FAM        NA
## # ... with 342 more rows
```
…
